…
The functions `studentAllocation::neat_project_output()`, `studentAllocation::neat_student_output()`, and `studentAllocation::neat_lecturer_output()` will provide you with neater information when passed the output object. For instance:

Until neater output is available, you can produce nicer output yourself. For instance, you might want to create a `tibble` containing the student assignments and their ranking of that assignment. You can do it like this:

```
student_assignments = studentAllocation::neat_student_output(e)
```

The output in `student_assignments` will look something like this:

```
student_assignments

# # A tibble: 100 x 4
#    student project lecturer student_ranking
#    <chr>   <chr>   <chr>       <int>
#  1 s1      p1      l1              1
#  2 s6      p1      l1              1
#  3 s10     p1      l1              1
#  4 s27     p1      l1              1
#  5 s74     p1      l1              1
#  6 s3      p10     l10             1
#  7 s4      p10     l10             1
#  8 s5      p10     l10             1
#  9 s20     p10     l10             1
# 10 s57     p10     l10             1
# # … with 90 more rows
```
…
